<?xml version="1.0" encoding="UTF-8" standalone="no"?>
<svg
   xmlns:dc="http://purl.org/dc/elements/1.1/"
   xmlns:cc="http://creativecommons.org/ns#"
   xmlns:rdf="http://www.w3.org/1999/02/22-rdf-syntax-ns#"
   xmlns:svg="http://www.w3.org/2000/svg"
   xmlns="http://www.w3.org/2000/svg"
   xmlns:sodipodi="http://sodipodi.sourceforge.net/DTD/sodipodi-0.dtd"
   xmlns:inkscape="http://www.inkscape.org/namespaces/inkscape"
   version="1.1"
   x="0px"
   y="0px"
   viewBox="0 0 100 125"
   style="enable-background:new 0 0 100 100;"
   xml:space="preserve"
   id="svg3810"
   sodipodi:docname="beer.svg"
   inkscape:version="0.92.1 15371"><metadata
     id="metadata3816"><rdf:RDF><cc:Work
         rdf:about=""><dc:format>image/svg+xml</dc:format><dc:type
           rdf:resource="http://purl.org/dc/dcmitype/StillImage" /><dc:title></dc:title></cc:Work></rdf:RDF></metadata><defs
     id="defs3814" /><sodipodi:namedview
     pagecolor="#ffffff"
     bordercolor="#666666"
     borderopacity="1"
     objecttolerance="10"
     gridtolerance="10"
     guidetolerance="10"
     inkscape:pageopacity="0"
     inkscape:pageshadow="2"
     inkscape:window-width="1855"
     inkscape:window-height="1056"
     id="namedview3812"
     showgrid="false"
     inkscape:zoom="10.680141"
     inkscape:cx="35.268449"
     inkscape:cy="79.848959"
     inkscape:window-x="65"
     inkscape:window-y="24"
     inkscape:window-maximized="1"
     inkscape:current-layer="svg3810" /><path
     d="M68.1,41.9h-2.2v-0.3c1.4-1.8,2.3-4.1,2.3-6.5c0-5.7-4.6-10.4-10.3-10.4c-0.5,0-1.1,0-1.6,0.1c-2.4-3-6-4.7-9.8-4.7  s-7.4,1.8-9.8,4.7c-0.5-0.1-1.1-0.1-1.6-0.1C29.6,24.6,25,29.3,25,35c0,2.5,0.9,4.7,2.3,6.5v34.9c0,1.9,1.6,3.5,3.5,3.5h31.7  c1.9,0,3.5-1.6,3.5-3.5v-4.6h2.2c3.8,0,6.9-3.1,6.9-7V48.8C75,45,71.9,41.9,68.1,41.9z M63.5,76.5c0,0.6-0.5,1.1-1.1,1.1H30.7  c-0.6,0-1.1-0.5-1.1-1.1V43.7c1.6,1.1,3.5,1.7,5.6,1.7c0.7,0,1.5-0.1,2.2-0.2v7.1c0,2.6,2.1,4.7,4.6,4.7s4.6-2.1,4.6-4.7v-6.9  c2.1,0,4.1-0.5,5.9-1.5c1.6,1,3.5,1.5,5.4,1.5c2.1,0,4-0.6,5.6-1.7V76.5z M57.9,43c-1.7,0-3.3-0.5-4.6-1.5c-0.4-0.3-0.9-0.3-1.3,0  c-1.6,1-3.5,1.6-5.4,1.6c-0.3,0-0.7,0-1-0.1c-0.3,0-0.7,0.1-0.9,0.3c-0.2,0.2-0.4,0.6-0.4,0.9v8.1c0,1.2-1,2.3-2.2,2.3  s-2.2-1-2.2-2.3v-8.7c0-0.4-0.2-0.8-0.5-1c-0.2-0.1-0.4-0.2-0.7-0.2c-0.2,0-0.3,0-0.5,0.1c-0.9,0.4-1.9,0.6-3,0.6  c-4.3,0-7.9-3.6-7.9-8c0-4.4,3.5-8,7.9-8c0.6,0,1.2,0.1,1.8,0.2c0.5,0.1,1-0.1,1.2-0.5c1.9-2.7,5-4.3,8.3-4.3s6.4,1.6,8.3,4.3  c0.3,0.4,0.8,0.6,1.2,0.5c0.6-0.1,1.2-0.2,1.8-0.2c4.3,0,7.9,3.6,7.9,8C65.8,39.4,62.3,43,57.9,43z M72.6,65c0,2.5-2,4.6-4.5,4.6  h-2.2V44.3h2.2c2.5,0,4.5,2,4.5,4.6V65z"
     id="path3804" /><path
     style="fill:#ffff00;stroke-width:0.09363172"
     d="m 30.282785,77.453447 c -0.156944,-0.06836 -0.357082,-0.233768 -0.444751,-0.367568 -0.148586,-0.226772 -0.159399,-1.361852 -0.159399,-16.733554 0,-9.069654 0.0316,-16.475892 0.07022,-16.458306 0.03862,0.01759 0.512634,0.250822 1.053357,0.518302 1.686084,0.834058 3.494228,1.164443 5.325846,0.97314 0.546862,-0.05712 1.046963,-0.103734 1.111335,-0.103592 0.09167,1.96e-4 0.11734,0.81729 0.118424,3.768934 0.0015,4.012049 0.04303,4.476739 0.47753,5.339955 0.328173,0.651974 0.846949,1.276751 1.417782,1.707476 2.633815,1.98736 6.38439,0.617281 7.233418,-2.642358 0.112151,-0.430578 0.139426,-1.262538 0.139426,-4.252901 v -3.717609 l 0.725646,-0.06085 c 1.677971,-0.140719 3.286015,-0.553674 4.465258,-1.146702 l 0.649764,-0.32676 0.614264,0.327663 c 3.014335,1.607919 6.944739,1.524371 9.907212,-0.210597 l 0.491567,-0.287885 -3.5e-4,16.457669 c -3.75e-4,16.341914 -0.0017,16.45985 -0.189314,16.767608 -0.377643,0.619409 0.772442,0.579932 -16.778079,0.575899 -13.039455,-0.003 -15.995789,-0.02631 -16.22916,-0.127959 z"
     id="path3818"
     inkscape:connector-curvature="0" /><path
     style="fill:#ffff00;stroke-width:0.09363172"
     d="m 35.275664,77.493427 -5.030172,-0.0488 -0.213205,-0.213164 c -0.21224,-0.212199 -0.213542,-0.23041 -0.287836,-4.026164 -0.06504,-3.322728 -0.0072,-29.136549 0.06541,-29.209188 0.01492,-0.01492 0.472372,0.185551 1.016552,0.445501 0.54418,0.259949 1.403902,0.584056 1.910494,0.720239 0.815476,0.219217 1.098195,0.248082 2.465998,0.251772 0.849708,0.0023 1.654332,-0.02554 1.788053,-0.06184 l 0.24313,-0.06601 0.06079,1.191985 c 0.03344,0.655591 0.0617,2.350677 0.0628,3.766857 0.0015,1.874753 0.03858,2.747494 0.136532,3.209732 0.47988,2.264651 2.87229,3.910497 5.144769,3.539318 1.659067,-0.270986 3.006733,-1.33927 3.683784,-2.920106 l 0.256393,-0.598649 0.04682,-3.979349 0.04682,-3.979348 0.374527,-0.02486 c 1.551063,-0.102934 3.419999,-0.557422 4.673321,-1.136458 l 0.770411,-0.355931 0.716285,0.360404 c 2.910827,1.464604 6.31544,1.467754 9.242402,0.0086 0.489225,-0.243898 0.926359,-0.459248 0.971408,-0.478555 0.04671,-0.02002 0.06189,7.000766 0.03532,16.338735 -0.03636,12.776864 -0.0723,16.442159 -0.163621,16.684831 -0.06851,0.182044 -0.219029,0.352872 -0.363029,0.412004 -0.547781,0.224937 -13.62463,0.304614 -27.654151,0.168496 z"
     id="path3839"
     inkscape:connector-curvature="0" /><path
     style="fill:#ffffff;stroke-width:0.09363172"
     d="m 41.382601,54.428677 c -0.454416,-0.144031 -1.149344,-0.86543 -1.290028,-1.339166 -0.0833,-0.280493 -0.115008,-1.64394 -0.116504,-5.009297 -0.0019,-4.339902 -0.01298,-4.647968 -0.179906,-5.015632 -0.306847,-0.675853 -0.972102,-0.854823 -1.866724,-0.502196 -1.480199,0.58344 -3.517573,0.626083 -5.067325,0.106062 -3.16636,-1.062478 -5.306312,-3.855513 -5.494111,-7.170838 -0.173611,-3.064868 1.466695,-5.975353 4.186803,-7.428872 1.48359,-0.792773 3.046504,-1.063222 4.755435,-0.822888 1.310481,0.184298 1.494188,0.126818 2.097387,-0.65625 0.555358,-0.720961 1.760382,-1.862473 2.441502,-2.31282 0.76315,-0.504584 2.138922,-1.13834 2.967644,-1.367061 3.85958,-1.065213 8.114123,0.32007 10.573853,3.442858 0.803588,1.020209 0.984179,1.091378 2.274246,0.896266 4.088559,-0.618359 7.993826,2.177125 8.832397,6.322444 0.252183,1.24662 0.158036,2.877186 -0.23359,4.045616 -1.385872,4.134807 -5.802399,6.304556 -9.960224,4.893254 -0.369582,-0.125448 -1.053985,-0.458962 -1.520895,-0.741141 -0.903371,-0.545957 -1.319249,-0.637566 -1.696094,-0.373613 -0.430064,0.301229 -1.894093,0.974542 -2.604722,1.197923 -1.062169,0.333885 -2.013311,0.456046 -3.295592,0.423274 -0.951729,-0.02432 -1.151143,-0.0036 -1.374479,0.142687 -0.517398,0.338952 -0.52649,0.426195 -0.52649,5.052236 0,4.913527 -0.0048,4.95061 -0.732689,5.675407 -0.622088,0.619435 -1.3508,0.801368 -2.169894,0.541747 z"
     id="path3841"
     inkscape:connector-curvature="0" /><path
     style="fill:#ffdc2b;stroke-width:0.09363172;fill-opacity:1"
     d="m 33.824325,77.494138 c -3.568089,-0.04937 -3.579573,-0.05016 -3.792085,-0.262717 -0.209294,-0.209338 -0.214542,-0.267032 -0.289587,-3.183479 -0.07555,-2.936163 -0.0198,-29.964823 0.06198,-30.0466 0.02328,-0.02328 0.289775,0.08259 0.592219,0.235266 0.862716,0.435497 1.653994,0.736352 2.538697,0.965248 0.693161,0.179339 1.049133,0.210284 2.363504,0.205463 0.851088,-0.0031 1.634698,-0.03337 1.741355,-0.06723 0.184532,-0.05857 0.196856,-0.01725 0.254494,0.853151 0.03331,0.503084 0.06164,2.136593 0.06294,3.630019 0.0028,3.192997 0.0581,3.684825 0.519432,4.618265 0.863226,1.74662 2.882966,2.84969 4.682799,2.557487 1.723209,-0.279764 2.92341,-1.210569 3.714339,-2.880619 l 0.304756,-0.643495 0.02884,-3.989361 0.02884,-3.989361 0.800009,-0.06149 c 1.414736,-0.108746 3.170944,-0.567454 4.479314,-1.169964 l 0.56179,-0.258707 0.842686,0.398185 c 2.140487,1.011422 4.409812,1.289411 6.691113,0.81965 0.824804,-0.169842 2.173104,-0.672692 2.864752,-1.068413 0.267039,-0.152783 0.516867,-0.277788 0.555175,-0.277788 0.03831,0 0.04965,7.362964 0.0252,16.362144 -0.03463,12.747273 -0.07023,16.429809 -0.16112,16.668423 -0.06417,0.168454 -0.206384,0.354293 -0.316035,0.412977 -0.125856,0.06736 -1.201093,0.133691 -2.916143,0.179907 -2.924809,0.07882 -20.37397,0.07419 -26.239262,-0.007 z"
     id="path3889"
     inkscape:connector-curvature="0" /></svg>